…
    ## 
    ##        Estimate Std. Error   Lower   Upper
    ## e:1:50  0.17905    0.00849 0.16171 0.19639
    ## 
    ## Estimated effective doses
    ## 
    ##         Estimate Std. Error     Lower     Upper
    ## e:1:50 0.1587569  0.0098007 0.1387411 0.1787727
    ## 
    ## Estimated effective doses
    ## 
    ##        Estimate Std. Error    Lower    Upper
    ## e:1:50 0.211026   0.012571 0.185419 0.236633

    ## # A tibble: 75 × 4
    ## # Groups:   is [75]
    ##    is         data               ll.4.mod   ec50
    ##    <chr>      <list>             <list>    <dbl>
    ##  1 ILSO_5-41c <tibble [36 × 11]> <drc>    0.107 
    ##  2 ILSO_5-42c <tibble [36 × 11]> <drc>    0.249 
    ##  3 ILSO_5-49b <tibble [36 × 11]> <drc>    0.168 
    ##  4 ILSO_6-1   <tibble [36 × 11]> <drc>    0.108 
    ##  5 ILSO_6-12B <tibble [36 × 11]> <drc>    0.184 
    ##  6 ILSO_6-2b  <tibble [36 × 11]> <drc>    0.227 
    ##  7 ILSO_6-33C <tibble [36 × 11]> <drc>    0.102 
    ##  8 ILSO_6-39C <tibble [36 × 11]> <drc>    0.110 
    ##  9 ILSO_6-15b <tibble [36 × 11]> <drc>    0.123 
    ## 10 ILSO_6-28C <tibble [36 × 11]> <drc>    0.0999
    ## # … with 65 more rows
…
So lets break down what each step does after the pipe. Step 1. All we
are doing is setting a grouping variable. This is what we want to loop
over. The grouping variable can be multiple variables, but in this case
we just want isolate as the grouping variable. When running the code
below, it wont look like much has happened other than you will notice a
Groups header at the top of the table.

``` r
EC50.data %>%
  group_by(is)
```

    ## # A tibble: 2,681 × 12
    ## # Groups:   is [75]
    ##    is         location trial   set batch   lat  conc   rep measure coldiam
    ##    <chr>      <chr>    <int> <int> <int> <dbl> <dbl> <int>   <int>   <dbl>
    ##  1 ILSO_5-41c Illinois     1     1     2  39.1  0        1       1    71.5
    ##  2 ILSO_5-41c Illinois     1     1     2  39.1  0        1       2    70.0
    ##  3 ILSO_5-41c Illinois     1     1     2  39.1  0        2       1    72.9
    ##  4 ILSO_5-41c Illinois     1     1     2  39.1  0        2       2    70.5
    ##  5 ILSO_5-41c Illinois     1     1     2  39.1  0        3       1    68.5
    ##  6 ILSO_5-41c Illinois     1     1     2  39.1  0        3       2    69.1
    ##  7 ILSO_5-41c Illinois     1     1     2  39.1  0.01     1       1    65.4
    ##  8 ILSO_5-41c Illinois     1     1     2  39.1  0.01     1       2    64.3
    ##  9 ILSO_5-41c Illinois     1     1     2  39.1  0.01     2       1    65.3
    ## 10 ILSO_5-41c Illinois     1     1     2  39.1  0.01     2       2    65.7
    ## # … with 2,671 more rows, and 2 more variables: coldiamplug <dbl>,
    ## #   relgrowth <dbl>

Next we are going to "nest’. This says that for all the data for each
isolate we want to collapse that into a column called data.

``` r
EC50.data %>%
  group_by(is) %>%
  nest()
```

    ## # A tibble: 75 × 2
    ## # Groups:   is [75]
    ##    is         data              
    ##    <chr>      <list>            
    ##  1 ILSO_5-41c <tibble [36 × 11]>
    ##  2 ILSO_5-42c <tibble [36 × 11]>
    ##  3 ILSO_5-49b <tibble [36 × 11]>
    ##  4 ILSO_6-1   <tibble [36 × 11]>
    ##  5 ILSO_6-12B <tibble [36 × 11]>
    ##  6 ILSO_6-2b  <tibble [36 × 11]>
    ##  7 ILSO_6-33C <tibble [36 × 11]>
    ##  8 ILSO_6-39C <tibble [36 × 11]>
    ##  9 ILSO_6-15b <tibble [36 × 11]>
    ## 10 ILSO_6-28C <tibble [36 × 11]>
    ## # … with 65 more rows
…
``` r
EC50.data %>%
  group_by(is) %>%
  nest() %>%
  mutate(ll.4.mod = map(data, ~drm(.$relgrowth ~ .$conc, 
                              fct = LL.4(fixed = c(NA, NA, NA, NA), 
                                         names = c("Slope", "Lower", "Upper", "EC50")))))
```

    ## # A tibble: 75 × 3
    ## # Groups:   is [75]
    ##    is         data               ll.4.mod
    ##    <chr>      <list>             <list>  
    ##  1 ILSO_5-41c <tibble [36 × 11]> <drc>   
    ##  2 ILSO_5-42c <tibble [36 × 11]> <drc>   
    ##  3 ILSO_5-49b <tibble [36 × 11]> <drc>   
    ##  4 ILSO_6-1   <tibble [36 × 11]> <drc>   
    ##  5 ILSO_6-12B <tibble [36 × 11]> <drc>   
    ##  6 ILSO_6-2b  <tibble [36 × 11]> <drc>   
    ##  7 ILSO_6-33C <tibble [36 × 11]> <drc>   
    ##  8 ILSO_6-39C <tibble [36 × 11]> <drc>   
    ##  9 ILSO_6-15b <tibble [36 × 11]> <drc>   
    ## 10 ILSO_6-28C <tibble [36 × 11]> <drc>   
    ## # … with 65 more rows
…
    ## 
    ##        Estimate Std. Error   Lower   Upper
    ## e:1:50  0.17905    0.00849 0.16171 0.19639
    ## 
    ## Estimated effective doses
    ## 
    ##         Estimate Std. Error     Lower     Upper
    ## e:1:50 0.1587569  0.0098007 0.1387411 0.1787727
    ## 
    ## Estimated effective doses
    ## 
    ##        Estimate Std. Error    Lower    Upper
    ## e:1:50 0.211026   0.012571 0.185419 0.236633

    ## # A tibble: 75 × 4
    ## # Groups:   is [75]
    ##    is         data               ll.4.mod ec50     
    ##    <chr>      <list>             <list>   <list>   
    ##  1 ILSO_5-41c <tibble [36 × 11]> <drc>    <dbl [1]>
    ##  2 ILSO_5-42c <tibble [36 × 11]> <drc>    <dbl [1]>
    ##  3 ILSO_5-49b <tibble [36 × 11]> <drc>    <dbl [1]>
    ##  4 ILSO_6-1   <tibble [36 × 11]> <drc>    <dbl [1]>
    ##  5 ILSO_6-12B <tibble [36 × 11]> <drc>    <dbl [1]>
    ##  6 ILSO_6-2b  <tibble [36 × 11]> <drc>    <dbl [1]>
    ##  7 ILSO_6-33C <tibble [36 × 11]> <drc>    <dbl [1]>
    ##  8 ILSO_6-39C <tibble [36 × 11]> <drc>    <dbl [1]>
    ##  9 ILSO_6-15b <tibble [36 × 11]> <drc>    <dbl [1]>
    ## 10 ILSO_6-28C <tibble [36 × 11]> <drc>    <dbl [1]>
    ## # … with 65 more rows
…
    ## 
    ##        Estimate Std. Error   Lower   Upper
    ## e:1:50  0.17905    0.00849 0.16171 0.19639
    ## 
    ## Estimated effective doses
    ## 
    ##         Estimate Std. Error     Lower     Upper
    ## e:1:50 0.1587569  0.0098007 0.1387411 0.1787727
    ## 
    ## Estimated effective doses
    ## 
    ##        Estimate Std. Error    Lower    Upper
    ## e:1:50 0.211026   0.012571 0.185419 0.236633

    ## # A tibble: 75 × 4
    ## # Groups:   is [75]
    ##    is         data               ll.4.mod   ec50
    ##    <chr>      <list>             <list>    <dbl>
    ##  1 ILSO_5-41c <tibble [36 × 11]> <drc>    0.107 
    ##  2 ILSO_5-42c <tibble [36 × 11]> <drc>    0.249 
    ##  3 ILSO_5-49b <tibble [36 × 11]> <drc>    0.168 
    ##  4 ILSO_6-1   <tibble [36 × 11]> <drc>    0.108 
    ##  5 ILSO_6-12B <tibble [36 × 11]> <drc>    0.184 
    ##  6 ILSO_6-2b  <tibble [36 × 11]> <drc>    0.227 
    ##  7 ILSO_6-33C <tibble [36 × 11]> <drc>    0.102 
    ##  8 ILSO_6-39C <tibble [36 × 11]> <drc>    0.110 
    ##  9 ILSO_6-15b <tibble [36 × 11]> <drc>    0.123 
    ## 10 ILSO_6-28C <tibble [36 × 11]> <drc>    0.0999
    ## # … with 65 more rows
…
